Model_3
…
## [1] 7654.46

min(ecommerce$final_total)

## [1] 1

mean(ecommerce$final_total)

## [1] 61.99581

ecommerce %>%
  count(final_total) %>%
  arrange(desc(n))

## # A tibble: 2,901 x 2
##    final_total     n
##          <dbl> <int>
##  1        25    8648
##  2        93    4178
##  3        25.2  3582
##  4        35    1432
##  5        75     674
##  6        28.4   578
##  7        99     404
##  8        94.2   397
##  9        50     352
## 10        67     310
## # ... with 2,891 more rows
…
